2348036706086,3/1/2017 0:00,Partial,1,1,1,1,1,1,1,1,1,1,1,1,1,1
2348032016958,3/1/2017 0:00,Partial,1,1,1,1,1,1,1,1,1,1,1,1,1,1
8064503550,,,,,,,,,,,,,,,,
8142498923,,,,,,,,,,,,,,,,
msisdn,,,,,,,,,,,,,,,,
2348092202055,,,,,,,,,,,,,,,,
2348184270154,,,,,,,,,,,,,,,,
msisdn,,,,,,,,,,,,,,,,
2348099545410,,,,,,,,,,,,,,,,
2348182236814,,,,,,,,,,,,,,,,
msisdn,,,,,,,,,,,,,,,,
2347032420299,,,,,,,,,,,,,,,,
8100306777,,,,,,,,,,,,,,,,
