MSISDN,DONOR_ID,RECIPIENT_ID,DATE_TIME_STAMP
23470xxxxxxxx,ANG,ETS,8/3/2016 0:00
234901xxxxxxx,ANG,GLO,8/2/2016 0:00
234703xxxxxxx,MTN,ANG,8/4/2016 0:00
234705xxxxxxx,MTN,ETS,8/2/2016 0:00
234803xxxxxxx,GLO,ANG,8/2/2016 0:00
